NPL package tutorial
…
The round() function designed in the base R package allows the user to round an array. It can be applied to an entire dataframe, however, if one of the variables contains strings or logical, the function returns an error. The round_df() function uses the round() function but only on the columns which contain numerical values, avoiding the error.

args(round_df)

## function (df, digits) 
## NULL

df: a dataframe

digits: number of digits after the decimal point to round to

round_df(data_Stroop_RT, 2)

## # A tibble: 27,180 x 11
##    subject group item  item.distr item.color trigger pres.order    RT    CR
##    <chr>   <chr> <chr> <chr>      <chr>      <chr>        <dbl> <dbl> <dbl>
##  1 A_201   16_18 grou~ g          rouge      1                1  525.     1
##  2 A_201   16_18 ^env~ ^          vert       1                2  397.     1
##  3 A_201   16_18 jaun~ jaune      bleu       3                3  546.     1
##  4 A_201   16_18 vert~ vert       vert       2                4  766.     1
##  5 A_201   16_18 prou~ p          rouge      1                5  407.     1
##  6 A_201   16_18 jaun~ jaune      jaune      2                6  500.     1
##  7 A_201   16_18 vert~ vert       vert       2                7  603.     1
##  8 A_201   16_18 bleu~ bleu       bleu       2                8  488      1
##  9 A_201   16_18 ^enr~ ^          rouge      1                9  606.     1
## 10 A_201   16_18 vert~ vert       vert       2               10  757.     1
## # ... with 27,170 more rows, and 2 more variables: error.type <chr>,
## #   RT_clean <dbl>
…
path: path to the .xlsx file containing the microstates results

n_maps: number of maps included in the segmentation

n_conditions: number of triggers/conditions included in the analysis

Let’s try to import the data from the import_stats_Ragu folder:

import_stats_Ragu(path = "import_stats_Ragu/Stats_segmentation_I_C_N_FW_73tf_5maps.xlsx",
                  n_maps = 5,
                  n_conditions = 3)

## # A tibble: 795 x 9
##    SubjectID          maps  conditions onset offset duration    AUC   COG   GFP
##    <chr>              <chr> <chr>      <dbl>  <dbl>    <dbl>  <dbl> <dbl> <dbl>
##  1 a_301_trigger1.asc Map_1 Trigger1      NA     NA        0   0     NA   NA   
##  2 a_301_trigger1.asc Map_1 Trigger2      NA     NA        0   0     NA   NA   
##  3 a_301_trigger1.asc Map_1 Trigger3      NA     NA        0   0     NA   NA   
##  4 a_302_trigger1.asc Map_1 Trigger1      NA     NA        0   0     NA   NA   
##  5 a_302_trigger1.asc Map_1 Trigger2      NA     NA        0   0     NA   NA   
##  6 a_302_trigger1.asc Map_1 Trigger3      NA     NA        0   0     NA   NA   
##  7 a_303_trigger1.asc Map_1 Trigger1      74     75        2   2.19  74.5  1.87
##  8 a_303_trigger1.asc Map_1 Trigger2      NA     NA        0   0     NA   NA   
##  9 a_303_trigger1.asc Map_1 Trigger3      NA     NA        0   0     NA   NA   
## 10 a_305_trigger1.asc Map_1 Trigger1      82    105       24 107.    94.1  4.73
## # ... with 785 more rows
…
import_stats_Cartool

args(import_stats_Cartool)

## function (path) 
## NULL

path: a character vector containing the path to the directory where the .seg and the statistics are stored.

To use the function, simply indicate the path to the folder created when backfitting the segmentation to the subjects:

import_stats_Cartool(path = "import_stats_Cartool")

## # A tibble: 795 x 18
##    Subject Group Map   FOnset LOffset NumTF TfCentroid MeanCorr    Gev  BCorr
##    <chr>   <chr> <chr>  <dbl>   <dbl> <dbl>      <dbl>    <dbl>  <dbl>  <dbl>
##  1 Subjec~ Grou~ Map1      -1      -1     0       -1     -1     0      -1    
##  2 Subjec~ Grou~ Map2      73     154    14      113.     0.351 0.0146  0.841
##  3 Subjec~ Grou~ Map3      81     102    22       92.7    0.829 0.0589  0.915
##  4 Subjec~ Grou~ Map4      -1      -1     0       -1     -1     0      -1    
##  5 Subjec~ Grou~ Map5     103     148    46      125.     0.928 0.242   0.964
##  6 Subjec~ Grou~ Map1      -1      -1     0       -1     -1     0      -1    
##  7 Subjec~ Grou~ Map2      73     154    60      120.     0.283 0.0316  0.677
##  8 Subjec~ Grou~ Map3      88     109    22       98.8    0.424 0.0108  0.694
##  9 Subjec~ Grou~ Map4      -1      -1     0       -1     -1     0      -1    
## 10 Subjec~ Grou~ Map5      -1      -1     0       -1     -1     0      -1    
## # ... with 785 more rows, and 8 more variables: TfBCorr <dbl>,
## #   GfpTfBCorr <dbl>, MaxGfp <dbl>, TfMaxGfp <dbl>, MeanGfp <dbl>,
## #   MeanDur <dbl>, TimeCov <dbl>, SegDensity <dbl>
…
path: path to the .seg file

Let’s try this out:

read_seg_file("read_seg_file__plot_microstates/Fit Maps FW_ICN_5maps.Group1.seg")

## Parsed with column specification:
## cols(
##   .default = col_double(),
##   X46 = col_logical()
## )

## See spec(...) for full column specifications.

## # A tibble: 155 x 46
##    GFP_1  Dis_1 Seg_1 GEV_1 Corr_1 GFP_2  Dis_2 Seg_2 GEV_2 Corr_2 GFP_3  Dis_3
##    <dbl>  <dbl> <dbl> <dbl>  <dbl> <dbl>  <dbl> <dbl> <dbl>  <dbl> <dbl>  <dbl>
##  1  1.19 0          0     0      0 0.900 0          0     0      0 1.07  0     
##  2  1.15 0.0616     0     0      0 0.836 0.0776     0     0      0 0.967 0.0744
##  3  1.12 0.0592     0     0      0 0.789 0.0742     0     0      0 0.867 0.0831
##  4  1.11 0.0546     0     0      0 0.759 0.0606     0     0      0 0.780 0.0867
##  5  1.12 0.0463     0     0      0 0.745 0.0393     0     0      0 0.705 0.0828
##  6  1.14 0.0389     0     0      0 0.741 0.0392     0     0      0 0.644 0.0703
##  7  1.14 0.0429     0     0      0 0.743 0.0614     0     0      0 0.602 0.0711
##  8  1.13 0.0518     0     0      0 0.752 0.0742     0     0      0 0.592 0.0963
##  9  1.12 0.0568     0     0      0 0.764 0.0757     0     0      0 0.615 0.106 
## 10  1.14 0.0603     0     0      0 0.787 0.0683     0     0      0 0.657 0.0896
## # ... with 145 more rows, and 34 more variables: Seg_3 <dbl>, GEV_3 <dbl>,
## #   Corr_3 <dbl>, GFP_4 <dbl>, Dis_4 <dbl>, Seg_4 <dbl>, GEV_4 <dbl>,
## #   Corr_4 <dbl>, GFP_5 <dbl>, Dis_5 <dbl>, Seg_5 <dbl>, GEV_5 <dbl>,
## #   Corr_5 <dbl>, GFP_6 <dbl>, Dis_6 <dbl>, Seg_6 <dbl>, GEV_6 <dbl>,
## #   Corr_6 <dbl>, GFP_7 <dbl>, Dis_7 <dbl>, Seg_7 <dbl>, GEV_7 <dbl>,
## #   Corr_7 <dbl>, GFP_8 <dbl>, Dis_8 <dbl>, Seg_8 <dbl>, GEV_8 <dbl>,
## #   Corr_8 <dbl>, GFP_9 <dbl>, Dis_9 <dbl>, Seg_9 <dbl>, GEV_9 <dbl>,
## #   Corr_9 <dbl>, time <int>
…
